<?xml version="1.0" encoding="UTF-8" standalone="no"?>
<svg
   data-name="Layer 1"
   width="670.70502"
   height="618.08698"
   viewBox="0 0 670.70502 618.08698"
   version="1.1"
   id="svg84"
   sodipodi:docname="solutions-dsc.svg"
   inkscape:version="1.1.2 (0a00cf5339, 2022-02-04)"
   xmlns:inkscape="http://www.inkscape.org/namespaces/inkscape"
   xmlns:sodipodi="http://sodipodi.sourceforge.net/DTD/sodipodi-0.dtd"
   xmlns="http://www.w3.org/2000/svg"
   xmlns:svg="http://www.w3.org/2000/svg">
  <defs
     id="defs88" />
  <sodipodi:namedview
     id="namedview86"
     pagecolor="#ffffff"
     bordercolor="#666666"
     borderopacity="1.0"
     inkscape:pageshadow="2"
     inkscape:pageopacity="0.0"
     inkscape:pagecheckerboard="0"
     showgrid="false"
     width="670.705px"
     inkscape:zoom="0.77253043"
     inkscape:cx="275.71729"
     inkscape:cy="640.10423"
     inkscape:window-width="1366"
     inkscape:window-height="699"
     inkscape:window-x="0"
     inkscape:window-y="32"
     inkscape:window-maximized="1"
     inkscape:current-layer="svg84" />
  <g
     id="g131"
     transform="translate(-0.00760201,-57.614849)">
    <path
       d="m 433.83374,760.55961 a 3.61323,3.61323 0 0 1 -2.61866,-6.26262 c 0.0911,-0.36213 0.15647,-0.62217 0.24758,-0.9843 a 9.70742,9.70742 0 0 0 -17.99686,-0.16974 c -4.28226,10.02341 -9.82453,20.4 -7.06825,31.44012 -18.206,-38.58538 -12.01459,-86.582 14.89138,-119.57967 7.43714,-4.09684 13.46508,-11.37558 15.03439,-19.82719 -3.6807,1.24714 -8.26984,-1.74675 -5.50237,-5.62382 1.19955,-1.48179 2.41076,-2.95192 3.6102,-4.4338 -13.98172,-14.89039 -30.6407,8.512 -15.25087,28.60947 a 115.847,115.847 0 0 0 -13.01128,20.35185 48.70929,48.70929 0 0 0 -2.908,-22.62447 c -2.78346,-6.71479 -8.00064,-12.37 -12.595,-18.17495 -5.58607,-7.07309 -17.083,-3.80994 -17.83469,5.16592 5.15526,1.69443 5.825,9.14117 -0.072,10.16037 1.54456,16.69795 12.45346,32.04321 27.47828,39.36634 a 116.2988,116.2988 0 0 0 -6.35538,48.61141 c -2.65207,-19.25 -23.31569,-23.92148 -37.7586,-31.57247 a 5.626,5.626 0 0 0 -8.5801,5.69851 32.49472,32.49472 0 0 1 5.69583,3.00488 4.91123,4.91123 0 0 1 -2.28162,8.96546 c 7.28014,18.01805 26.10227,30.11728 45.43371,30.04916 a 119.56344,119.56344 0 0 0 8.03167,23.447 h 28.69167 c 0.10292,-0.3188 0.19543,-0.64792 0.288,-0.96672 a 32.59928,32.59928 0 0 1 -7.93916,-0.473 c 7.02637,-8.31908 12.46032,-12.56336 8.371,-24.17721 z"
       transform="translate(-264.64361,-112.14923)"
       fill="#f2f2f2"
       id="path2" />
    <path
       d="m 689.62625,760.55961 a 3.61323,3.61323 0 0 0 2.61866,-6.26262 c -0.0911,-0.36213 -0.15647,-0.62217 -0.24758,-0.9843 a 9.70742,9.70742 0 0 1 17.99686,-0.16974 c 4.28226,10.02341 9.82453,20.4 7.06825,31.44012 18.206,-38.58538 12.01458,-86.582 -14.89138,-119.57967 -7.43714,-4.09684 -13.46509,-11.37558 -15.03439,-19.82719 3.6807,1.24714 8.26984,-1.74675 5.50237,-5.62382 -1.19956,-1.48179 -2.41076,-2.95192 -3.6102,-4.4338 13.98172,-14.89039 30.6407,8.512 15.25086,28.60947 a 115.84646,115.84646 0 0 1 13.0113,20.35185 48.70916,48.70916 0 0 1 2.908,-22.62447 c 2.78346,-6.71479 8.00064,-12.37 12.595,-18.17495 5.58608,-7.07309 17.083,-3.80994 17.8347,5.16592 -5.15526,1.69443 -5.825,9.14117 0.072,10.16037 -1.54455,16.69795 -12.45345,32.04321 -27.47828,39.36634 a 116.29881,116.29881 0 0 1 6.35539,48.61141 c 2.65207,-19.25 23.31569,-23.92148 37.75859,-31.57247 a 5.626,5.626 0 0 1 8.58011,5.69851 32.49472,32.49472 0 0 0 -5.69583,3.00488 4.91123,4.91123 0 0 0 2.28162,8.96546 C 765.22214,750.699 746.4,762.79819 727.06856,762.73007 a 119.56213,119.56213 0 0 1 -8.03167,23.447 h -28.69167 c -0.10291,-0.3188 -0.19542,-0.64792 -0.288,-0.96672 a 32.59917,32.59917 0 0 0 7.93915,-0.473 c -7.02636,-8.31908 -12.46031,-12.56336 -8.371,-24.17721 z"
       transform="translate(-264.64361,-112.14923)"
       fill="#f2f2f2"
       id="path4" />
    <polygon
       points="424.778,605.01 435.621,652.671 423.265,655.481 406.541,609.159 "
       fill="#ffb6b6"
       id="polygon6" />
    <path
       d="m 703.63334,777.61045 -37.99713,8.6454 -0.10935,-0.48053 a 15.16836,15.16836 0 0 1 11.42388,-18.15477 l 9.1e-4,-2.1e-4 5.74235,-6.845 14.14807,2.31939 3.31689,-0.7547 z"
       transform="translate(-264.64361,-112.14923)"
       fill="#2f2e41"
       id="path8" />
    <polygon
       points="593.685,453.082 634.947,426.88 641.739,437.577 603.711,468.871 "
       fill="#ffb6b6"
       id="polygon10" />
    <path
       d="m 910.51,531.565 20.89046,32.89549 -0.416,0.26421 a 15.16835,15.16835 0 0 1 -20.935,-4.672 l -5.1e-4,-7.9e-4 -8.3746,-3.11352 -2.56085,-14.10639 -1.8236,-2.87155 z"
       transform="translate(-264.64361,-112.14923)"
       fill="#2f2e41"
       id="path12" />
    <path
       d="m 505.71851,424.66143 -3.05179,-17.68893 46.39728,-20.95121 10.01992,-17.74014 a 8.6255,8.6255 0 1 1 12.73916,5.72525 l -16.48288,25.48313 z"
       transform="translate(-264.64361,-112.14923)"
       fill="#a0616a"
       id="path14" />
    <polygon
       points="238.883,318.905 226.971,298.052 247.865,287.379 253.396,308.147 "
       fill="#ea4335"
       id="polygon16" />
    <polygon
       points="180.083,602.333 180.086,651.062 192.719,651.061 198.729,602.332 "
       fill="#a0616a"
       id="polygon18" />
    <path
       d="m 461.56659,764.34828 v -8.56464 l -3.32125,0.20291 -13.51968,0.80093 -3.129,0.19221 -2.3921,28.684 -0.12814,1.53778 h 8.97038 l 0.28836,-1.5271 1.30284,-6.94137 3.36394,6.94139 0.73686,1.5271 h 23.78232 a 5.3736,5.3736 0 0 0 5.33953,-5.35022 c 1.00385,-4.6881 -18.77382,-14.82253 -21.29406,-17.50299 z"
       transform="translate(-264.64361,-112.14923)"
       fill="#2f2e41"
       id="path20" />
    <polygon
       points="77.509,469.036 30.123,457.676 27.178,469.962 73.163,487.168 "
       fill="#a0616a"
       id="polygon22" />
    <path
       d="m 290.73483,585.93371 8.32858,1.99694 0.57707,-3.277 2.37341,-13.33379 0.54263,-3.08754 -27.33571,-9.01417 -1.46553,-0.48317 -2.09154,8.72315 1.41778,0.63647 6.44631,2.88537 -7.53442,1.65275 -1.65682,0.36049 -5.5451,23.12679 a 5.37361,5.37361 0 0 0 3.95779,6.43983 c 4.32486,2.06929 18.79135,-14.80032 21.98555,-16.62612 z"
       transform="translate(-264.64361,-112.14923)"
       fill="#2f2e41"
       id="path24" />
    <path
       d="m 464.26323,447.83918 -16.26123,-7.60151 -32.4281,39.24382 -19.75241,4.99551 a 8.6255,8.6255 0 1 0 2.16908,13.79709 l 28.92383,-9.19171 z"
       transform="translate(-264.64361,-112.14923)"
       fill="#a0616a"
       id="path26" />
    <path
       d="M 694.80226,302.5638 A 17.42774,17.42774 0 1 1 712.23,285.13606 17.44724,17.44724 0 0 1 694.80226,302.5638 Z m 0,-32.85547 A 15.42774,15.42774 0 1 0 710.23,285.13606 15.44526,15.44526 0 0 0 694.80226,269.70833 Z"
       transform="translate(-264.64361,-112.14923)"
       fill="#e6e6e6"
       id="path28" />
    <path
       d="m 693.57236,291.70163 c -0.035,0 -0.0701,-0.001 -0.10507,-0.003 a 2.14825,2.14825 0 0 1 -1.59248,-0.82742 l -2.74536,-3.5295 a 2.14913,2.14913 0 0 1 0.3767,-3.01642 l 0.0988,-0.0769 a 2.1489,2.1489 0 0 1 3.017,0.377 1.56764,1.56764 0 0 0 2.37407,0.1156 l 5.57413,-5.88477 a 2.15234,2.15234 0 0 1 3.03891,-0.0826 l 0.0914,0.0871 a 2.14888,2.14888 0 0 1 0.082,3.03863 l -8.65034,9.13067 a 2.1469,2.1469 0 0 1 -1.55976,0.67137 z"
       transform="translate(-264.64361,-112.14923)"
       fill="#e6e6e6"
       id="path30" />
    <path
       d="M 607.80226,513.5638 A 17.42774,17.42774 0 1 1 625.23,496.13606 17.44724,17.44724 0 0 1 607.80226,513.5638 Z m 0,-32.85547 A 15.42774,15.42774 0 1 0 623.23,496.13606 15.44526,15.44526 0 0 0 607.80226,480.70833 Z"
       transform="translate(-264.64361,-112.14923)"
       fill="#e6e6e6"
       id="path32" />
    <path
       d="m 606.57236,502.70163 c -0.035,0 -0.0701,-0.001 -0.10507,-0.003 a 2.14825,2.14825 0 0 1 -1.59248,-0.82742 l -2.74536,-3.5295 a 2.14913,2.14913 0 0 1 0.3767,-3.01642 l 0.0988,-0.0769 a 2.1489,2.1489 0 0 1 3.017,0.377 1.56764,1.56764 0 0 0 2.37407,0.1156 l 5.57413,-5.88477 a 2.15234,2.15234 0 0 1 3.03891,-0.0826 l 0.0914,0.0871 a 2.14888,2.14888 0 0 1 0.082,3.03863 l -8.65034,9.13067 a 2.1469,2.1469 0 0 1 -1.55976,0.67137 z"
       transform="translate(-264.64361,-112.14923)"
       fill="#e6e6e6"
       id="path34" />
    <path
       d="M 416.80226,278.5638 A 17.42774,17.42774 0 1 1 434.23,261.13606 17.44724,17.44724 0 0 1 416.80226,278.5638 Z m 0,-32.85547 A 15.42774,15.42774 0 1 0 432.23,261.13606 15.44526,15.44526 0 0 0 416.80226,245.70833 Z"
       transform="translate(-264.64361,-112.14923)"
       fill="#e6e6e6"
       id="path36" />
    <path
       d="m 415.57236,267.70163 c -0.035,0 -0.07,-0.001 -0.10507,-0.003 a 2.14825,2.14825 0 0 1 -1.59248,-0.82742 l -2.74536,-3.5295 a 2.14913,2.14913 0 0 1 0.3767,-3.01642 l 0.0988,-0.0769 a 2.1489,2.1489 0 0 1 3.017,0.377 1.56764,1.56764 0 0 0 2.37407,0.1156 l 5.57413,-5.88477 a 2.15234,2.15234 0 0 1 3.03891,-0.0826 l 0.0914,0.0871 a 2.14888,2.14888 0 0 1 0.082,3.03863 l -8.65034,9.13067 a 2.1469,2.1469 0 0 1 -1.55976,0.67137 z"
       transform="translate(-264.64361,-112.14923)"
       fill="#e6e6e6"
       id="path38" />
    <path
       d="m 556.32861,578.362 c -40.4127,0 -86.85713,-44.8462 -127.94893,-23.53858 -124.415,64.51367 -107.28858,-43.43994 -143.032,-83.58887 l 1.17347,-2.35367 c 39.43876,35.36308 88.67933,64.13529 142.3988,83.20477 48.54556,17.23457 97.45513,25.21994 141.42331,23.11263 l 0.0763,2.8291 q -6.96503,0.33598 -14.09096,0.33462 z"
       transform="translate(-264.64361,-112.14923)"
       fill="#f2f2f2"
       id="path40" />
    <ellipse
       cx="236.24896"
       cy="151.67564"
       rx="8.4473696"
       ry="11.32747"
       fill="#e6e6e6"
       id="ellipse42" />
    <path
       d="m 598.45942,451.86256 c -3.862,2.57319 -7.8147,-3.55124 -3.87848,-6.01019 3.86182,-2.57303 7.81451,3.55142 3.87848,6.01019 z"
       transform="translate(-264.64361,-112.14923)"
       fill="#e6e6e6"
       id="path44" />
    <circle
       cx="311.58636"
       cy="122.52998"
       r="11.00001"
       fill="#ff6584"
       id="circle46" />
    <path
       d="M 367.90672,240.42385 430.49992,57.614849 361.76864,238.23552 a 3.44161,3.44161 0 1 0 6.138,2.18833 z"
       fill="#f0f0f0"
       opacity="0.3"
       style="isolation:isolate"
       id="path48" />
    <circle
       cx="286.88016"
       cy="394.82132"
       r="10.70233"
       fill="#f2f2f2"
       id="circle50" />
    <path
       d="m 447.86906,511.05286 c 0,0 -26.68056,17.3734 -19.62564,28.9179 0.24334,0.39819 -31.8698,42.81114 -31.8698,42.81114 l -60.62192,-3.84843 -2.13581,20.29024 53.96989,15.6309 c 0,0 13.20317,9.70014 23.40295,-0.98735 10.19978,-10.68749 44.17412,-43.41547 44.17412,-43.41547 l 1.63875,66.07682 -17.055,91.56282 25.46506,-1.61459 24.78545,-91.86039 9.14869,-104.05438 z"
       transform="translate(-264.64361,-112.14923)"
       fill="#2f2e41"
       id="path52" />
    <path
       d="m 466.87374,406.78429 -11.21963,8.50264 -12.78818,27.29364 12.29692,16.70079 c 0,0 10.34382,17.92663 -6.213,35.28742 -16.55682,17.36079 -29.27075,35.903 -16.01861,35.24094 13.25214,-0.66206 66.925,26.63708 67.27817,4.27163 0.35317,-22.36545 1.06791,-39.51257 1.06791,-39.51257 l 14.07182,-35.691 c 0,0 8.38367,-21.29157 2.49756,-27.665 -5.88611,-6.37343 -13.76722,-14.51762 -13.76722,-14.51762 l -14.332,-14.332 h -12.94103 z"
       transform="translate(-264.64361,-112.14923)"
       fill="#ea4335"
       id="path54" />
    <path
       d="m 487.81808,354.34275 c 25.17045,14.323 4.50676,52.1142 -21.13292,38.65708 -25.16965,-14.32253 -4.50596,-52.11373 21.13292,-38.65708 z"
       transform="translate(-264.64361,-112.14923)"
       fill="#a0616a"
       id="path56" />
    <path
       d="m 501.27736,362.28439 c -1.76366,2.29385 -5.44838,1.21828 -12.66425,2.85509 a 30.0806,30.0806 0 0 0 -0.84145,-7.262 20.44136,20.44136 0 0 1 -3.44664,8.17266 c -6.2657,0.69489 1.4152,19.72973 -1.79293,33.72475 -4.1335,-29.525 -12.82753,-21.78969 -8.43537,-15.93348 2.81179,3.74905 0.93726,14.99621 -7.49811,9.37263 -13.918,6.61465 -33.74148,-26.24337 -11.771,-41.6533 -0.39257,-8.32949 8.87553,-9.64531 14.58276,-7.0844 13.85063,-10.31781 29.67486,2.90286 31.86699,17.80805 z"
       transform="translate(-264.64361,-112.14923)"
       fill="#2f2e41"
       id="path58" />
    <path
       d="m 436.69556,340.74042 c -5.60384,34.45449 -35.64018,-6.33653 -49.76307,27.57014 -4.44043,12.279 3.1782,21.063 7.99731,31.25514 1.09987,8.37608 -9.79671,12.62567 -10.93808,20.33581 -0.31767,17.67633 28.19992,16.59465 36.17224,5.44248 8.19157,-11.67441 -1.59034,-27.33755 3.3334,-39.86846 6.92029,-17.39742 35.06365,-17.52667 37.51543,-37.76706 -4.74831,-6.76177 -17.51639,-14.50614 -24.31723,-6.96805 z"
       transform="translate(-264.64361,-112.14923)"
       fill="#2f2e41"
       id="path60" />
    <path
       d="m 459.39678,344.1072 c -0.18333,0.0772 -0.36666,0.15436 -0.53067,0.24122 h -0.01 c -0.15435,0.0772 -0.30877,0.15436 -0.46312,0.24122 -0.0193,0.01 -0.0289,0.0193 -0.0482,0.029 -0.20264,-0.193 -0.40523,-0.386 -0.61753,-0.579 a 2.23127,2.23127 0 0 0 0.0386,0.94557 l 0.029,0.11584 c 0.193,0.20259 0.39558,0.39558 0.60788,0.59822 0.193,-0.14475 0.37632,-0.29911 0.56925,-0.44387 0.11584,-0.0965 0.23162,-0.193 0.35706,-0.28945 0.0193,-0.25088 0.0482,-0.54033 0.0772,-0.85876 z m 5.80861,-10.72948 c -4.30339,-0.9842 -5.69283,4.64108 -6.10772,7.35239 -1.5631,-9.84181 -8.0664,-6.74451 -5.81821,-0.029 a 15.03577,15.03577 0 0 0 3.30954,5.32617 c 0.20265,0.23156 0.42455,0.46312 0.65611,0.69474 -0.26053,1.3508 1.05175,1.00346 2.8271,-0.24122 a 23.64644,23.64644 0 0 0 3.61831,-3.1745 c 3.5411,-3.71474 6.30071,-8.68391 1.51487,-9.92858 z m 0.1351,5.53841 a 33.71912,33.71912 0 0 1 -4.44809,4.71829 q -0.76713,0.69468 -1.56311,1.33154 c -0.01,0.0868 -0.01,0.164 -0.0193,0.23156 a 1.76744,1.76744 0 0 1 -0.1351,0.27014 c -0.54033,0.97454 -1.14821,0.44387 -1.37978,-0.3666 -0.0193,-0.029 -0.0482,-0.058 -0.0675,-0.0869 a 13.59562,13.59562 0 0 1 -1.99732,-2.64376 c -3.985,-6.90859 2.43152,-11.60757 2.1131,1.29291 a 1.22205,1.22205 0 0 0 -0.11578,0.37631 2.23127,2.23127 0 0 0 0.0386,0.94557 l 0.029,0.11584 c 0.193,0.20259 0.39558,0.39558 0.60788,0.59822 0.193,-0.14475 0.37632,-0.29911 0.56925,-0.44387 0.11584,-0.0965 0.23162,-0.193 0.35706,-0.28945 0.0193,-0.25088 0.0482,-0.54033 0.0772,-0.85876 v -0.01 c 0.25088,-2.58587 0.936,-7.23661 2.2,-8.50061 2.7788,-2.13241 6.37779,0.17368 3.73402,3.3192 z m -5.94371,5.19107 c -0.18333,0.0772 -0.36666,0.15436 -0.53067,0.24122 h -0.01 c -0.15435,0.0772 -0.30877,0.15436 -0.46312,0.24122 -0.0193,0.01 -0.0289,0.0193 -0.0482,0.029 -0.20264,-0.193 -0.40523,-0.386 -0.61753,-0.579 a 2.23127,2.23127 0 0 0 0.0386,0.94557 l 0.029,0.11584 c 0.193,0.20259 0.39558,0.39558 0.60788,0.59822 0.193,-0.14475 0.37632,-0.29911 0.56925,-0.44387 0.11584,-0.0965 0.23162,-0.193 0.35706,-0.28945 0.0193,-0.25088 0.0482,-0.54033 0.0772,-0.85876 z"
       transform="translate(-264.64361,-112.14923)"
       fill="#2f2e41"
       id="path62" />
    <path
       d="m 692.04013,534.06684 -9.29621,24.24343 -43.60841,86.02 38.31843,100.06726 19.77606,-5.22045 -16.2999,-94.84679 46.76372,-56.82 55.53618,37.66679 c 0,0 24.62993,19.22833 34,1 9.37007,-18.22833 70,-57 70,-57 l -15,-16 -69.8189,32.67367 -48.189,-67.8277 z"
       transform="translate(-264.64361,-112.14923)"
       fill="#2f2e41"
       id="path64" />
    <path
       d="m 738.94653,419.71251 -15.30259,-16.44094 -26.25,-3.6113 -32.16394,22.51681 0.324,24.92317 15.8999,58.72909 c 0,0 -6.05632,42.19407 10.85986,41.77091 16.91618,-0.42316 26.13667,-8.85681 33.02643,-7.14 6.88976,1.71681 36.1776,9.02321 38.03368,1.37 1.85608,-7.65321 11.72223,-2.1734 11.28915,-9.4133 -0.43308,-7.2399 -26.70912,-59.42671 -26.70912,-59.42671 l 6.53318,-52.19189 z"
       transform="translate(-264.64361,-112.14923)"
       fill="#ea4335"
       id="path66" />
    <path
       d="m 835.83771,344.03191 a 9.37336,9.37336 0 0 1 -10.04227,10.28266 l -35.19059,66.92659 -9.44785,-14.50364 35.96941,-63.16417 a 9.42414,9.42414 0 0 1 18.71131,0.45856 z"
       transform="translate(-264.64361,-112.14923)"
       fill="#ffb6b6"
       id="path68" />
    <path
       d="m 725.05359,432.1567 c 0,0 -1.39576,11.90471 12.00633,14.85193 13.40209,2.94722 50.53255,-18.26908 56.61959,-21.50955 1.90607,-1.01471 4.49252,-5.98844 7.14634,-12.34227 1.19141,-2.85251 2.3964,-5.98318 3.55951,-9.15866 0.67307,-1.83761 3.896,-2.33916 4.53028,-4.16155 0.63079,-1.81239 -1.32682,-4.94594 -0.75562,-6.65408 2.71126,-8.10776 4.63222,-14.54 4.63222,-14.54 L 803.90952,361.957 c -12.42314,6.56777 -18.79493,21.0345 -23.48121,37.70138 z"
       transform="translate(-264.64361,-112.14923)"
       fill="#ea4335"
       id="path70" />
    <path
       d="m 568.53346,359.40109 a 9.37338,9.37338 0 0 0 12.296,7.44229 l 50.81976,55.99017 5.51755,-16.40654 -50.63217,-52.15256 a 9.42414,9.42414 0 0 0 -18.00114,5.12664 z"
       transform="translate(-264.64361,-112.14923)"
       fill="#ffb6b6"
       id="path72" />
    <path
       d="m 697.84632,416.997 c 0,0 4.3306,11.17659 -7.90745,17.384 -12.23805,6.20741 -53.49655,-5.04152 -60.20085,-6.65554 -2.09936,-0.5054 -5.84822,-4.67359 -10.00769,-10.1611 -1.86737,-2.46358 -3.8175,-5.19306 -5.73828,-7.97641 -1.11154,-1.61069 -4.35744,-1.28972 -5.4276,-2.89539 -1.06428,-1.59685 0.0468,-5.12061 -0.93366,-6.63143 -4.654,-7.17125 -8.12359,-12.9181 -8.12359,-12.9181 l 4.42437,-18.37754 c 13.67146,3.24977 23.46093,15.66156 32.16911,30.62531 z"
       transform="translate(-264.64361,-112.14923)"
       fill="#ea4335"
       id="path74" />
    <circle
       cx="446.39896"
       cy="258.35266"
       r="24.97608"
       fill="#ffb6b6"
       id="circle76" />
    <path
       d="m 739.553,356.2011 c -2.62724,-4.0645 -7.55741,-6.77336 -12.33685,-6.01217 a 16.84708,16.84708 0 0 0 -28.228,-9.82644 5.2387,5.2387 0 0 0 -5.12309,-0.51271 10.802,10.802 0 0 0 -4.16216,3.34089 24.24317,24.24317 0 0 0 -3.39231,24.66312 c -0.58411,-2.12346 1.54395,-4.12116 3.69413,-4.59767 2.15,-0.47651 4.40539,-0.0257 6.58579,-0.336 2.79455,-0.39764 5.30662,-2.01879 8.10559,-2.38364 a 18.45292,18.45292 0 0 1 7.01181,0.901 19.01211,19.01211 0 0 0 7.009,0.94123 c 2.35582,-0.27972 5.39028,8.64788 5.34956,14.9359 -0.008,1.19163 0.2377,2.72158 1.40225,2.97439 1.43413,0.31141 2.26516,-1.668 3.63019,-2.2073 a 2.52535,2.52535 0 0 1 3.09748,1.64714 4.11724,4.11724 0 0 1 -0.78607,3.68694 12.16654,12.16654 0 0 1 -2.9497,2.55878 l 0.56219,0.46757 a 3.34516,3.34516 0 0 0 4.22278,0.5246 9.11368,9.11368 0 0 0 3.03188,-3.45219 40.623,40.623 0 0 0 5.56109,-13.32571 c 0.8801,-4.75883 0.3415,-9.92323 -2.28556,-13.98773 z"
       transform="translate(-264.64361,-112.14923)"
       fill="#2f2e41"
       id="path78" />
    <path
       d="M 924.32561,454.70812 C 892.1101,479.10785 828.00979,471.3996 808.1177,513.195 c -60.228,126.54524 -111.754,30.14827 -164.48777,19.72361 l -0.48562,-2.58476 c 52.79008,4.37844 109.41448,-2.4151 163.75112,-19.64751 49.10434,-15.57131 92.91452,-38.73551 126.692,-66.96178 l 1.76894,2.20918 q -5.34937,4.47311 -11.03076,8.77438 z"
       transform="translate(-264.64361,-112.14923)"
       fill="#f2f2f2"
       id="path80" />
    <path
       d="m 788.11962,786.14558 c -0.76734,2.27271 -438.84115,2.27262 -439.669,0.006 0.76632,-2.27822 438.84008,-2.27816 439.669,-0.006 z"
       transform="translate(-264.64361,-112.14923)"
       fill="#cccccc"
       id="path82" />
  </g>
</svg>
